\relax 
\providecommand\hyper@newdestlabel[2]{}
\providecommand\HyperFirstAtBeginDocument{\AtBeginDocument}
\HyperFirstAtBeginDocument{\ifx\hyper@anchor\@undefined
\global\let\oldcontentsline\contentsline
\gdef\contentsline#1#2#3#4{\oldcontentsline{#1}{#2}{#3}}
\global\let\oldnewlabel\newlabel
\gdef\newlabel#1#2{\newlabelxx{#1}#2}
\gdef\newlabelxx#1#2#3#4#5#6{\oldnewlabel{#1}{{#2}{#3}}}
\AtEndDocument{\ifx\hyper@anchor\@undefined
\let\contentsline\oldcontentsline
\let\newlabel\oldnewlabel
\fi}
\fi}
\global\let\hyper@last\relax 
\gdef\HyperFirstAtBeginDocument#1{#1}
\providecommand\HyField@AuxAddToFields[1]{}
\providecommand\HyField@AuxAddToCoFields[2]{}
\citation{austvoll2005study}
\citation{butler2012naturalistic}
\citation{geiger2012we}
\citation{Geiger2013IJRR}
\@writefile{toc}{\contentsline {section}{\numberline {1}\hskip -1em.\nobreakspace  {}Introduction}{1}{section.1}}
\@writefile{brf}{\backcite{austvoll2005study}{{1}{1}{section.1}}}
\@writefile{brf}{\backcite{butler2012naturalistic}{{1}{1}{section.1}}}
\@writefile{brf}{\backcite{geiger2012we,Geiger2013IJRR}{{1}{1}{section.1}}}
\@writefile{lof}{\contentsline {figure}{\numberline {1}{\ignorespaces A visualization of KITTI imperfection. A disparity threshold is used to color lidar points on the background blue and forground lidar points on the car red. The ground truth wrongly labels some portion of the background as car.\relax }}{1}{figure.caption.1}}
\providecommand*\caption@xref[2]{\@setref\relax\@undefined{#1}}
\newlabel{fig:kitti_error}{{1}{1}{A visualization of KITTI imperfection. A disparity threshold is used to color lidar points on the background blue and forground lidar points on the car red. The ground truth wrongly labels some portion of the background as car.\relax }{figure.caption.1}{}}
\citation{vzbontar2014computing}
\@writefile{lof}{\contentsline {figure}{\numberline {2}{\ignorespaces Visualization of a stereo pair and corresponding lidar file. \textbf  {Top:} the stereo pair. Images are monochrome and have resolution of 1600 x 848. The zoom in shows the viewpoint difference between left and right camera. \textbf  {Bottom:} visualization of the lidar file. The lidar took a full panoramic scan of 145, 927 lidar points. Zoom in shows the lidar points of the moving cars.\relax }}{2}{figure.caption.2}}
\newlabel{fig:intro}{{2}{2}{Visualization of a stereo pair and corresponding lidar file. \textbf {Top:} the stereo pair. Images are monochrome and have resolution of 1600 x 848. The zoom in shows the viewpoint difference between left and right camera. \textbf {Bottom:} visualization of the lidar file. The lidar took a full panoramic scan of 145, 927 lidar points. Zoom in shows the lidar points of the moving cars.\relax }{figure.caption.2}{}}
\@writefile{brf}{\backcite{vzbontar2014computing}{{2}{1}{figure.caption.2}}}
\@writefile{toc}{\contentsline {section}{\numberline {2}\hskip -1em.\nobreakspace  {}Scoring}{2}{section.2}}
\newlabel{eq:threshold}{{1}{2}{\hskip -1em.~Scoring}{equation.2.1}{}}
\citation{yamaguchi2014efficient}
\@writefile{toc}{\contentsline {section}{\numberline {3}\hskip -1em.\nobreakspace  {}The Stereo Converter}{3}{section.3}}
\@writefile{brf}{\backcite{yamaguchi2014efficient}{{3}{3}{section.3}}}
\newlabel{fig:occlude}{{\caption@xref {fig:occlude}{ on input line 200}}{3}{\hskip -1em.~The Stereo Converter}{figure.caption.3}{}}
\newlabel{sub@fig:occlude}{{}{3}{\hskip -1em.~The Stereo Converter}{figure.caption.3}{}}
\@writefile{lof}{\contentsline {figure}{\numberline {3}{\ignorespaces The lidar pulse tracing model. \textbf  {Left:} the lidar pulse terminates at point $P$ where it hits the slanted disparity plane $p_2$ occluded by $p_1$. The pulse is then assigned to plane $p_2$. \textbf  {Right:} the corresponding trajectory of the lidar ray on image, where the ray hits the car in the back (invisible to camera). Each segment on image represents a slanted disparity plane.\relax }}{3}{figure.caption.3}}
\newlabel{fig:occlusion}{{3}{3}{The lidar pulse tracing model. \textbf {Left:} the lidar pulse terminates at point $P$ where it hits the slanted disparity plane $p_2$ occluded by $p_1$. The pulse is then assigned to plane $p_2$. \textbf {Right:} the corresponding trajectory of the lidar ray on image, where the ray hits the car in the back (invisible to camera). Each segment on image represents a slanted disparity plane.\relax }{figure.caption.3}{}}
\citation{yamaguchi2014efficient}
\citation{Levinson-RSS-07}
\citation{urmson2008autonomous}
\citation{Geiger2013IJRR}
\citation{Velodyne_manual}
\citation{yamaguchi2014efficient}
\citation{spangenberg2014large}
\citation{bradski2000opencv}
\citation{hirschmuller2008stereo}
\citation{geiger2011efficient}
\citation{cech2007efficient}
\citation{zhang2014cross}
\@writefile{lof}{\contentsline {figure}{\numberline {4}{\ignorespaces Test vehicle used for data collection. The Velodyne HDL-64E Lidar and stereo camera setup are mounted on the roof rack. Details of the sensors are in the text.\relax }}{4}{figure.caption.4}}
\newlabel{fig:test_vehicle}{{4}{4}{Test vehicle used for data collection. The Velodyne HDL-64E Lidar and stereo camera setup are mounted on the roof rack. Details of the sensors are in the text.\relax }{figure.caption.4}{}}
\@writefile{brf}{\backcite{yamaguchi2014efficient}{{4}{3}{figure.caption.3}}}
\@writefile{toc}{\contentsline {section}{\numberline {4}\hskip -1em.\nobreakspace  {}Data Collection}{4}{section.4}}
\@writefile{brf}{\backcite{Levinson-RSS-07, urmson2008autonomous, Geiger2013IJRR}{{4}{4}{figure.caption.4}}}
\@writefile{brf}{\backcite{Velodyne_manual}{{4}{4}{figure.caption.4}}}
\@writefile{toc}{\contentsline {section}{\numberline {5}\hskip -1em.\nobreakspace  {}Results}{4}{section.5}}
\@writefile{brf}{\backcite{yamaguchi2014efficient}{{4}{\caption@xref {??}{ on input line 269}}{table.caption.5}}}
\@writefile{brf}{\backcite{spangenberg2014large}{{4}{\caption@xref {??}{ on input line 269}}{table.caption.5}}}
\@writefile{brf}{\backcite{bradski2000opencv}{{4}{\caption@xref {??}{ on input line 269}}{table.caption.5}}}
\@writefile{brf}{\backcite{hirschmuller2008stereo}{{4}{\caption@xref {??}{ on input line 269}}{table.caption.5}}}
\@writefile{brf}{\backcite{geiger2011efficient}{{4}{\caption@xref {??}{ on input line 269}}{table.caption.5}}}
\@writefile{brf}{\backcite{cech2007efficient}{{4}{\caption@xref {??}{ on input line 269}}{table.caption.5}}}
\@writefile{brf}{\backcite{zhang2014cross}{{4}{\caption@xref {??}{ on input line 269}}{table.caption.5}}}
\@writefile{lot}{\contentsline {table}{\numberline {1}{\ignorespaces 3-pixel error rate of several stereo algorithms using slanted-plane stereo converter. We show the error rate for both non-occuluded points and the entire points.\relax }}{4}{table.caption.5}}
\newlabel{tb:error}{{1}{4}{3-pixel error rate of several stereo algorithms using slanted-plane stereo converter. We show the error rate for both non-occuluded points and the entire points.\relax }{table.caption.5}{}}
\citation{sun2014quantitative}
\citation{yamaguchi2014efficient}
\bibstyle{ieee}
\bibdata{egbib}
\bibcite{austvoll2005study}{1}
\bibcite{besl1988active}{2}
\bibcite{besl1992method}{3}
\bibcite{bradski2000opencv}{4}
\bibcite{butler2012naturalistic}{5}
\bibcite{cech2007efficient}{6}
\bibcite{davis2003spacetime}{7}
\newlabel{fig:bestworst}{{\caption@xref {fig:bestworst}{ on input line 280}}{5}{\hskip -1em.~Results}{figure.caption.6}{}}
\newlabel{sub@fig:bestworst}{{}{5}{\hskip -1em.~Results}{figure.caption.6}{}}
\newlabel{fig:bestworst}{{\caption@xref {fig:bestworst}{ on input line 285}}{5}{\hskip -1em.~Results}{figure.caption.6}{}}
\newlabel{sub@fig:bestworst}{{a}{5}{\hskip -1em.~Results}{figure.caption.6}{}}
\@writefile{lof}{\contentsline {figure}{\numberline {5}{\ignorespaces The best and worst performed images of SPS-ST. Images are converted to 3D planes and visualized with lidar points mapped on top. The color of lidar points shows whether the algorithm correctly predicts the flight time of the lidar pulse, where red means ``correct predict'' and blue means ``wrong predict''.\relax }}{5}{figure.caption.6}}
\newlabel{fig:best_worst}{{5}{5}{The best and worst performed images of SPS-ST. Images are converted to 3D planes and visualized with lidar points mapped on top. The color of lidar points shows whether the algorithm correctly predicts the flight time of the lidar pulse, where red means ``correct predict'' and blue means ``wrong predict''.\relax }{figure.caption.6}{}}
\@writefile{toc}{\contentsline {section}{\numberline {6}\hskip -1em.\nobreakspace  {}Conclusion and Future Work}{5}{section.6}}
\@writefile{brf}{\backcite{sun2014quantitative}{{5}{\caption@xref {??}{ on input line 313}}{figure.caption.7}}}
\@writefile{brf}{\backcite{yamaguchi2014efficient}{{5}{\caption@xref {??}{ on input line 313}}{figure.caption.7}}}
\@writefile{lof}{\contentsline {figure}{\numberline {6}{\ignorespaces Above: a test case of optical flow with a car moving forward relative to the camera. Wrong predictions are visualized in color green and blue: green points are the wrong predictions where the actual lidar positions are further, while blue points are where the actual lidar positions are closer. We can see Classic++ successfully captures the forward motion of the car where SPS-FL fails. Below: the 3-pixel error rate of Classic++ and SPS-FL for the entire flow dataset. The depth for the optical flow converter is based on the result of SPS-ST.\relax }}{5}{figure.caption.7}}
\newlabel{tb:flow_error}{{6}{5}{Above: a test case of optical flow with a car moving forward relative to the camera. Wrong predictions are visualized in color green and blue: green points are the wrong predictions where the actual lidar positions are further, while blue points are where the actual lidar positions are closer. We can see Classic++ successfully captures the forward motion of the car where SPS-FL fails. Below: the 3-pixel error rate of Classic++ and SPS-FL for the entire flow dataset. The depth for the optical flow converter is based on the result of SPS-ST.\relax }{figure.caption.7}{}}
\bibcite{Geiger2013IJRR}{8}
\bibcite{geiger2012we}{9}
\bibcite{geiger2011efficient}{10}
\bibcite{hirschmuller2008stereo}{11}
\bibcite{le2009joint}{12}
\bibcite{Levinson-RSS-07}{13}
\bibcite{meagher1982geometric}{14}
\bibcite{nesichigh}{15}
\bibcite{scharstein2003high}{16}
\bibcite{seitz2006comparison}{17}
\bibcite{spangenberg2014large}{18}
\bibcite{sun2014quantitative}{19}
\bibcite{urmson2008autonomous}{20}
\bibcite{Velodyne_manual}{21}
\bibcite{weinzaepfel2013deepflow}{22}
\bibcite{yamaguchi2014efficient}{23}
\bibcite{vzbontar2014computing}{24}
\bibcite{zhang2014cross}{25}
\bibcite{zhang2003spacetime}{26}
